[gd_scene load_steps=4 format=2]

[ext_resource path="res://Scenes/LaserRed.gd" type="Script" id=1]
[ext_resource path="res://Sprites/spaceArt/png/laserRed.png" type="Texture" id=2]

[sub_resource type="RectangleShape2D" id=2]

custom_solver_bias = 0.0
extents = Vector2( 10, 10 )

[node name="LaserRed" type="Area2D"]

position = Vector2( 320.443, 64.3584 )
scale = Vector2( 0.5, 0.5 )
input_pickable = true
gravity_vec = Vector2( 0, 1 )
gravity = 98.0
linear_damp = 0.1
angular_damp = 1.0
audio_bus_override = false
audio_bus_name = "Master"
script = ExtResource( 1 )
_sections_unfolded = [ "Transform" ]
speed = 100

[node name="laserRed" type="Sprite" parent="." index="0"]

position = Vector2( -0.131134, 0.421616 )
texture = ExtResource( 2 )

[node name="CollisionShape2D" type="CollisionShape2D" parent="." index="1"]

position = Vector2( 1.19209e-005, -0.17483 )
scale = Vector2( 0.497576, 1.64066 )
shape = SubResource( 2 )


